<?xml version="1.0" encoding="utf-8"?>
<!-- Svg Vector Icons : http://www.onlinewebfonts.com/icon -->
<!DOCTYPE svg PUBLIC "-//W3C//DTD SVG 1.1//EN" "http://www.w3.org/Graphics/SVG/1.1/DTD/svg11.dtd">
<svg version="1.1" xmlns="http://www.w3.org/2000/svg" xmlns:xlink="http://www.w3.org/1999/xlink" x="0px" y="0px" viewBox="0 0 1000 1000" enable-background="new 0 0 1000 1000" xml:space="preserve">
<metadata> Svg Vector Icons : http://www.onlinewebfonts.com/icon </metadata>
<g><g transform="translate(0.000000,511.000000) scale(0.100000,-0.100000)"><path d="M4756.6,4736.2c-610.8-57.4-1200.9-367.4-1598.1-833.5c-75.8-89.5-147-169.9-153.8-179.1c-9.2-9.2-91.8-2.3-186,18.4c-339.8,71.2-766.9-11.5-1060.8-206.7c-174.5-114.8-404.1-362.8-496-535c-82.7-156.1-165.3-447.7-165.3-585.5v-87.3H5000h3903.5v87.3c-2.3,385.8-289.3,874.8-661.3,1120.5c-293.9,197.5-723.3,280.1-1060.8,206.7l-172.2-39l-68.9,87.3c-344.4,429.4-835.8,757.7-1313.4,877.1c-167.6,43.6-562.5,98.7-649.8,89.6C4958.7,4756.9,4857.6,4747.7,4756.6,4736.2z"/><path d="M481.2,1799.5c-135.5-32.1-248-126.3-316.9-266.4L100,1399.9l231.9-2078c252.6-2257.1,245.7-2220.4,413.3-2447.7l85-114.8l18.4,137.8c112.5,893.2,897.8,1549.9,1797.9,1497.1c636-36.8,1164.2-388.1,1448.9-964.4c128.6-264.1,174.5-475.3,165.3-760l-6.9-220.4h741.7h739.4v236.5c0,916.2,702.6,1657.8,1618.8,1708.4c319.2,18.4,551.1-29.9,858.8-179.1c199.7-98.7,266.3-144.6,427.1-303.1c287-287,463.8-631.4,509.7-1003.4l18.4-149.2l87.2,114.8c167.6,227.3,160.7,190.6,413.3,2447.7L9900,1404.5l-68.9,133.2c-50.5,105.6-91.8,151.6-179.1,204.4l-112.5,68.9l-4491.3,4.6C2577.5,1815.5,522.5,1810.9,481.2,1799.5z"/><path d="M2302-2129.3c-167.6-34.4-424.8-165.3-558-284.7c-450-404.1-535-1076.9-199.8-1582.1c218.1-328.3,620-541.9,1021.8-541.9c158.4,0,452.3,82.6,594.7,167.6c268.7,158.5,486.8,445.5,564.9,739.4c192.9,743.9-349,1483.3-1113.6,1515.5C2504.1-2110.9,2366.3-2115.5,2302-2129.3z"/><path d="M7250.2-2120.1c-362.8-59.7-723.3-330.6-893.2-665.9c-156.2-310-156.2-760,0-1070c300.8-597,1019.5-842.7,1616.5-555.7c665.9,321.4,895.5,1168.8,479.9,1774.9C8191.6-2257.9,7698-2044.3,7250.2-2120.1z"/></g></g>
</svg>