<?xml version="1.0" standalone="no"?>
<!DOCTYPE svg PUBLIC "-//W3C//DTD SVG 20010904//EN"
 "http://www.w3.org/TR/2001/REC-SVG-20010904/DTD/svg10.dtd">
<svg version="1.0" xmlns="http://www.w3.org/2000/svg"
 width="46.000000pt" height="46.000000pt" viewBox="0 0 46.000000 46.000000"
 preserveAspectRatio="xMidYMid meet">

<g transform="translate(0.000000,46.000000) scale(0.100000,-0.100000)"
>
<path d="M160 440 c-75 -25 -134 -90 -151 -164 -35 -159 109 -302 269 -266 76
17 144 83 167 163 15 53 15 61 0 113 -21 74 -83 137 -156 158 -64 20 -62 20
-129 -4z m160 -25 c104 -53 145 -185 90 -285 -70 -126 -238 -146 -334 -40
-108 119 -50 301 109 341 36 9 101 1 135 -16z"/>
<path d="M196 261 c9 -41 -13 -48 -34 -12 -11 20 -25 31 -39 31 -28 0 -28 -1
-3 -49 35 -70 98 -102 125 -64 13 17 14 17 32 0 19 -16 73 -24 73 -10 0 4 -10
17 -21 29 l-21 23 21 29 c27 39 27 42 -6 42 -21 0 -33 -8 -45 -30 -23 -40 -38
-38 -38 5 0 31 -3 35 -25 35 -22 0 -24 -3 -19 -29z"/>
</g>
</svg>
