<?xml version="1.0" standalone="no"?>
<!DOCTYPE svg PUBLIC "-//W3C//DTD SVG 20010904//EN"
 "http://www.w3.org/TR/2001/REC-SVG-20010904/DTD/svg10.dtd">
<svg version="1.0" xmlns="http://www.w3.org/2000/svg"
 width="45.000000pt" height="46.000000pt" viewBox="0 0 45.000000 46.000000"
 preserveAspectRatio="xMidYMid meet">

<g transform="translate(0.000000,46.000000) scale(0.100000,-0.100000)"
>
<path d="M162 441 c-81 -28 -123 -70 -148 -147 -31 -95 4 -194 88 -250 94 -64
211 -50 290 33 111 117 55 321 -103 367 -64 19 -62 20 -127 -3z m125 -16 c61
-18 129 -87 139 -142 25 -134 -52 -246 -180 -260 -166 -19 -285 177 -193 317
30 44 59 66 115 86 48 17 58 17 119 -1z"/>
<path d="M205 280 c-55 -32 -101 -64 -103 -69 -2 -6 8 -13 22 -17 21 -5 37 3
88 47 66 57 68 52 6 -22 -24 -29 -38 -55 -38 -74 0 -28 0 -28 21 -10 17 16 25
17 50 8 35 -14 33 -17 49 87 6 41 14 83 16 93 3 9 2 17 -3 17 -4 -1 -53 -27
-108 -60z"/>
</g>
</svg>
